…
For this analysis we only want to focus on movies, we don’t really have
time to watch entire series, we are too busy codding and loving so it
will only be the most rated movies at this time.

In the code chunk below we will also sort the data by most voted and
higer rated. This will hopefully unearth some modern movie gems to watch
with friends.

``` r
movies_2025 %>%
  filter(titleType == "movie") %>%
  arrange(desc(numVotes), desc(averageRating))
```

    ## # A tibble: 5,278 × 11
    ##    tconst     titleType primaryTitle     originalTitle isAdult startYear endYear
    ##    <chr>      <chr>     <chr>            <chr>           <dbl>     <dbl> <chr>  
    ##  1 tt6208148  movie     Snow White       Snow White          0      2025 "\\N"  
    ##  2 tt5950044  movie     Superman         Superman            0      2025 "\\N"  
    ##  3 tt31193180 movie     Sinners          Sinners             0      2025 "\\N"  
    ##  4 tt20969586 movie     Thunderbolts*    Thunderbolts*       0      2025 "\\N"  
    ##  5 tt16311594 movie     F1: The Movie    F1                  0      2025 "\\N"  
    ##  6 tt12299608 movie     Mickey 17        Mickey 17           0      2025 "\\N"  
    ##  7 tt14513804 movie     Captain America… Captain Amer…       0      2025 "\\N"  
    ##  8 tt9603208  movie     Mission: Imposs… Mission: Imp…       0      2025 "\\N"  
    ##  9 tt13654226 movie     The Gorge        The Gorge           0      2025 "\\N"  
    ## 10 tt26584495 movie     Companion        Companion           0      2025 "\\N"  
    ## # ℹ 5,268 more rows
    ## # ℹ 4 more variables: runtimeMinutes <int>, genres <chr>, averageRating <dbl>,
    ## #   numVotes <dbl>
…
